('C:\\Users\\Tamir David Hay\\PycharmProjects\\line-replacement\\Tera_to_terminal\\build\\Line-replacer 1.2\\Line-replacer 1.2.exe',
 True,
 False,
 True,
 None,
 None,
 False,
 False,
 u'<?xml version="1.0" encoding="UTF-8" standalone="yes"?><assembly manifestVersion="1.0" xmlns="urn:schemas-microsoft-com:asm.v1"><assemblyIdentity name="Line-replacer 1.2" processorArchitecture="x86" type="win32" version="1.0.0.0"/><dependency><dependentAssembly><assemblyIdentity name="Microsoft.VC90.CRT" processorArchitecture="x86" publicKeyToken="1fc8b3b9a1e18e3b" type="win32" version="9.0.21022.8"/><compatibility xmlns="urn:schemas-microsoft-com:compatibility.v1"/></dependentAssembly></dependency><compatibility xmlns="urn:schemas-microsoft-com:compatibility.v1"><application><supportedOS Id="{1f676c76-80e1-4239-95bb-83d0f6d0da78}"/><supportedOS Id="{4a2f28e3-53b9-4441-ba9c-d69d4a4a6e38}"/><supportedOS Id="{e2011457-1546-43c5-a5fe-008deee3d3f0}"/><supportedOS Id="{35138b9a-5d96-4fbd-8e2d-a2440225f93a}"/><supportedOS Id="{8e0f7a12-bfb3-4fe8-b9a5-48fd50a15a9a}"/></application></compatibility></assembly>',
 True,
 'Line-replacer 1.2.pkg',
 [('out00-PYZ.pyz',
   'C:\\Users\\Tamir David Hay\\PycharmProjects\\line-replacement\\Tera_to_terminal\\build\\Line-replacer 1.2\\out00-PYZ.pyz',
   'PYZ'),
  ('struct',
   'c:\\users\\tamir david hay\\anaconda2\\lib\\struct.pyc',
   'PYMODULE'),
  ('pyimod01_os_path',
   'c:\\users\\tamir david hay\\anaconda2\\lib\\site-packages\\PyInstaller\\loader\\pyimod01_os_path.pyc',
   'PYMODULE'),
  ('pyimod02_archive',
   'c:\\users\\tamir david hay\\anaconda2\\lib\\site-packages\\PyInstaller\\loader\\pyimod02_archive.pyc',
   'PYMODULE'),
  ('pyimod03_importers',
   'c:\\users\\tamir david hay\\anaconda2\\lib\\site-packages\\PyInstaller\\loader\\pyimod03_importers.pyc',
   'PYMODULE'),
  ('pyiboot01_bootstrap',
   'c:\\users\\tamir david hay\\anaconda2\\lib\\site-packages\\PyInstaller\\loader\\pyiboot01_bootstrap.py',
   'PYSOURCE'),
  ('Desktop-V1.0',
   'C:\\Users\\Tamir David Hay\\PycharmProjects\\line-replacement\\Tera_to_terminal\\Desktop-V1.0.py',
   'PYSOURCE'),
  ('Line-replacer 1.2.exe.manifest',
   'C:\\Users\\Tamir David Hay\\PycharmProjects\\line-replacement\\Tera_to_terminal\\build\\Line-replacer 1.2\\Line-replacer 1.2.exe.manifest',
   'BINARY')],
 [],
 False,
 False,
 1498387233L,
 [('run.exe',
   'c:\\users\\tamir david hay\\anaconda2\\lib\\site-packages\\PyInstaller\\bootloader\\Windows-32bit\\run.exe',
   'EXECUTABLE')])
