([('Line-replacer1.1.exe',
   'C:\\Users\\Tamir David Hay\\PycharmProjects\\line-replacement\\Tera_to_terminal\\build\\Line-replacer1.1\\Line-replacer1.1.exe',
   'EXECUTABLE'),
  ('Line-replacer1.1.exe.manifest',
   'C:\\Users\\Tamir David Hay\\PycharmProjects\\line-replacement\\Tera_to_terminal\\build\\Line-replacer1.1\\Line-replacer1.1.exe.manifest',
   'BINARY'),
  (u'Microsoft.VC90.CRT.manifest',
   u'C:\\Windows\\WinSxS\\Manifests\\x86_microsoft.vc90.crt_1fc8b3b9a1e18e3b_9.0.30729.9247_none_5090cb78bcba4a35.manifest',
   'BINARY'),
  (u'msvcr90.dll',
   u'C:\\Windows\\WinSxS\\x86_microsoft.vc90.crt_1fc8b3b9a1e18e3b_9.0.30729.9247_none_5090cb78bcba4a35\\msvcr90.dll',
   'BINARY'),
  (u'msvcp90.dll',
   u'C:\\Windows\\WinSxS\\x86_microsoft.vc90.crt_1fc8b3b9a1e18e3b_9.0.30729.9247_none_5090cb78bcba4a35\\msvcp90.dll',
   'BINARY'),
  (u'msvcm90.dll',
   u'C:\\Windows\\WinSxS\\x86_microsoft.vc90.crt_1fc8b3b9a1e18e3b_9.0.30729.9247_none_5090cb78bcba4a35\\msvcm90.dll',
   'BINARY'),
  ('python27.dll',
   'c:\\users\\tamir david hay\\anaconda2\\python27.dll',
   'BINARY'),
  ('unicodedata',
   'c:\\users\\tamir david hay\\anaconda2\\DLLs\\unicodedata.pyd',
   'EXTENSION'),
  ('bz2',
   'c:\\users\\tamir david hay\\anaconda2\\DLLs\\bz2.pyd',
   'EXTENSION'),
  ('_hashlib',
   'c:\\users\\tamir david hay\\anaconda2\\DLLs\\_hashlib.pyd',
   'EXTENSION'),
  ('select',
   'c:\\users\\tamir david hay\\anaconda2\\DLLs\\select.pyd',
   'EXTENSION')],)
