('C:\\Users\\Tamir David Hay\\PycharmProjects\\line-replacement\\Tera_to_terminal\\build\\Line-replacer1.1\\out00-PKG.pkg',
 {'BINARY': 1,
  'DATA': 1,
  'EXECUTABLE': 1,
  'EXTENSION': 1,
  'PYMODULE': 1,
  'PYSOURCE': 1,
  'PYZ': 0},
 [('out00-PYZ.pyz',
   'C:\\Users\\Tamir David Hay\\PycharmProjects\\line-replacement\\Tera_to_terminal\\build\\Line-replacer1.1\\out00-PYZ.pyz',
   'PYZ'),
  ('struct',
   'c:\\users\\tamir david hay\\anaconda2\\lib\\struct.pyc',
   'PYMODULE'),
  ('pyimod01_os_path',
   'c:\\users\\tamir david hay\\anaconda2\\lib\\site-packages\\PyInstaller\\loader\\pyimod01_os_path.pyc',
   'PYMODULE'),
  ('pyimod02_archive',
   'c:\\users\\tamir david hay\\anaconda2\\lib\\site-packages\\PyInstaller\\loader\\pyimod02_archive.pyc',
   'PYMODULE'),
  ('pyimod03_importers',
   'c:\\users\\tamir david hay\\anaconda2\\lib\\site-packages\\PyInstaller\\loader\\pyimod03_importers.pyc',
   'PYMODULE'),
  ('pyiboot01_bootstrap',
   'c:\\users\\tamir david hay\\anaconda2\\lib\\site-packages\\PyInstaller\\loader\\pyiboot01_bootstrap.py',
   'PYSOURCE'),
  ('Desktop-V1.0',
   'C:\\Users\\Tamir David Hay\\PycharmProjects\\line-replacement\\Tera_to_terminal\\Desktop-V1.0.py',
   'PYSOURCE'),
  ('Line-replacer1.1.exe.manifest',
   'C:\\Users\\Tamir David Hay\\PycharmProjects\\line-replacement\\Tera_to_terminal\\build\\Line-replacer1.1\\Line-replacer1.1.exe.manifest',
   'BINARY')],
 True,
 False,
 False)
